…
# Apply classification and add category column
machinery_categorized <- machinery %>%
  mutate(epimachinery_category = vapply(gene_name, classify_gene, character(1)))

machinery_categorized
```

    ## # A tibble: 499 × 5
    ##    accession          protein_name       gene_name species epimachinery_category
    ##    <chr>              <chr>              <chr>     <chr>   <chr>                
    ##  1 ENSMUSP00000004202 DNA (cytosine-5-)… Dnmt1     Mus mu… DNA methylation & re…
    ##  2 ENSMUSP00000020991 DNA (cytosine-5-)… Dnmt3a    Mus mu… DNA methylation & re…
    ##  3 ENSMUSP00000051830 DNA (cytosine-5-)… Dnmt3b    Mus mu… DNA methylation & re…
    ##  4 ENSMUSP00000000746 DNA (cytosine-5-)… Dnmt3l    Mus mu… DNA methylation & re…
    ##  5 ENSP00000342812    Ubiquitin carboxy… USP9Y     Homo s… Ubiquitin signaling  
    ##  6 ENSP00000219473    Ubiquitin carboxy… USP10     Homo s… Ubiquitin signaling  
    ##  7 ENSP00000218348    Ubiquitin carboxy… USP11     Homo s… Ubiquitin signaling  
    ##  8 ENSP00000282344    Ubiquitin carboxy… USP12     Homo s… Ubiquitin signaling  
    ##  9 ENSP00000261601    Ubiquitin carboxy… USP14     Homo s… Ubiquitin signaling  
    ## 10 ENSP00000280377    Ubiquitin carboxy… USP15     Homo s… Ubiquitin signaling  
    ## # ℹ 489 more rows
…
